{
	"_id": "CL01-01",
	"firstName": "Bryant",
	"lastName": "Kobe",
	"email": "bryant@gmail.com",
	"password": "kobe24",
	"isAdmin": false,
	"mobileNumber": "09191234567",

}

{
	"_id": "CL01-02",
	"firstName": "James",
	"lastName": "Lebron",
	"email": "james@gmail.com",
	"password": "lbj23",
	"isAdmin": false,
	"mobileNumber": "09191234567",
}
